^C:\BAOLINGFENG\RESEARCH\INTERACTIVEVIDEO\ACTIVITYTOOLS2\ACTIVITYCOLLECTER\ACTIVITYUPLOADER\UPLOAD.CPP
/c /Zi /nologo /W3 /WX- /sdl /O2 /Oi /Oy- /GL /D WIN32 /D NDEBUG /D _CONSOLE /D _UNICODE /D UNICODE /Gm- /EHsc /MD /GS /Gy /fp:precise /Zc:wchar_t /Zc:forScope /Fo"RELEASE\\" /Fd"RELEASE\VC110.PDB" /Gd /TP /analyze- C:\BAOLINGFENG\RESEARCH\INTERACTIVEVIDEO\ACTIVITYTOOLS2\ACTIVITYCOLLECTER\ACTIVITYUPLOADER\UPLOAD.CPP
^C:\BAOLINGFENG\RESEARCH\INTERACTIVEVIDEO\ACTIVITYTOOLS2\ACTIVITYCOLLECTER\ACTIVITYUPLOADER\UTIL.CPP
/c /Zi /nologo /W3 /WX- /sdl /O2 /Oi /Oy- /GL /D WIN32 /D NDEBUG /D _CONSOLE /D _UNICODE /D UNICODE /Gm- /EHsc /MD /GS /Gy /fp:precise /Zc:wchar_t /Zc:forScope /Fo"RELEASE\\" /Fd"RELEASE\VC110.PDB" /Gd /TP /analyze- C:\BAOLINGFENG\RESEARCH\INTERACTIVEVIDEO\ACTIVITYTOOLS2\ACTIVITYCOLLECTER\ACTIVITYUPLOADER\UTIL.CPP
